<svg id="SJXx5BfJGwz" version="1.1" width="400" height="116.4929221990563" xmlns="http://www.w3.org/2000/svg" xmlns:xlink="http://www.w3.org/1999/xlink" style="display: block;" xmlns:svgjs="http://svgjs.com/svgjs">
    <style type="text/css">
        @-webkit-keyframes ryNxqBMJGPf_Animation{0%{opacity: 0;transform-box: fill-box;-webkit-transform-origin: 50% 50%;transform-origin: 50% 50%;}50%{opacity: 1;transform-box: fill-box;-webkit-transform-origin: 50% 50%;transform-origin: 50% 50%;}100%{opacity: 0;transform-box: fill-box;-webkit-transform-origin: 50% 50%;transform-origin: 50% 50%;}}@keyframes ryNxqBMJGPf_Animation{0%{opacity: 0;transform-box: fill-box;-webkit-transform-origin: 50% 50%;transform-origin: 50% 50%;}50%{opacity: 1;transform-box: fill-box;-webkit-transform-origin: 50% 50%;transform-origin: 50% 50%;}100%{opacity: 0;transform-box: fill-box;-webkit-transform-origin: 50% 50%;transform-origin: 50% 50%;}}@-webkit-keyframes ryNxqBMJGPf_HyX40kzDG_Animation{0%{-webkit-transform: scale(0.9, 0.9);transform: scale(0.9, 0.9);transform-box: fill-box;-webkit-transform-origin: 50% 50%;transform-origin: 50% 50%;}50%{-webkit-transform: scale(0.97, 0.97);transform: scale(0.97, 0.97);transform-box: fill-box;-webkit-transform-origin: 50% 50%;transform-origin: 50% 50%;}100%{-webkit-transform: scale(0.9, 0.9);transform: scale(0.9, 0.9);transform-box: fill-box;-webkit-transform-origin: 50% 50%;transform-origin: 50% 50%;}}@keyframes ryNxqBMJGPf_HyX40kzDG_Animation{0%{-webkit-transform: scale(0.9, 0.9);transform: scale(0.9, 0.9);transform-box: fill-box;-webkit-transform-origin: 50% 50%;transform-origin: 50% 50%;}50%{-webkit-transform: scale(0.97, 0.97);transform: scale(0.97, 0.97);transform-box: fill-box;-webkit-transform-origin: 50% 50%;transform-origin: 50% 50%;}100%{-webkit-transform: scale(0.9, 0.9);transform: scale(0.9, 0.9);transform-box: fill-box;-webkit-transform-origin: 50% 50%;transform-origin: 50% 50%;}}#SJXx5BfJGwz *{-webkit-animation-duration: 2s;animation-duration: 2s;-webkit-animation-iteration-count: infinite;animation-iteration-count: infinite;-webkit-animation-timing-function: cubic-bezier(0, 0, 1, 1);animation-timing-function: cubic-bezier(0, 0, 1, 1);}#rySxqrGkMDf{stroke: none;fill: #040707;}#rJ8lqBzyGPG{stroke: none;fill: #0000ff;}#H1vlcHGkGPf{stroke: none;fill: #0055ff;}#HyOxqrf1zPz{stroke: none;fill: #0ab0da;}#S1YxcHMkMPf{stroke: none;fill: #00ffff;}#ryNxqBMJGPf_HyX40kzDG{-webkit-animation-name: ryNxqBMJGPf_HyX40kzDG_Animation;animation-name: ryNxqBMJGPf_HyX40kzDG_Animation;}#ryNxqBMJGPf{-webkit-animation-name: ryNxqBMJGPf_Animation;animation-name: ryNxqBMJGPf_Animation;}
    </style>
    <g id="ryNxqBMJGPf_HyX40kzDG" data-animator-group="true" data-animator-type="2">
        <g id="ryNxqBMJGPf" class="">
            <path id="rySxqrGkMDf" d="M-0.000 109.764 L -0.000 116.377 6.049 116.303 C 14.016 116.207,14.149 116.152,14.300 112.894 C 14.383 111.118,14.168 110.278,13.527 109.878 C 13.283 109.726,13.054 109.580,13.018 109.555 C 12.983 109.530,13.155 109.244,13.402 108.921 C 14.636 107.304,14.264 104.288,12.735 103.500 C 12.335 103.294,11.172 103.241,6.125 103.201 L -0.000 103.151 -0.000 109.764 M16.667 109.750 L 16.667 116.333 18.000 116.333 L 19.333 116.333 19.333 109.750 L 19.333 103.167 18.000 103.167 L 16.667 103.167 16.667 109.750 M21.500 109.750 L 21.500 116.333 22.833 116.333 L 24.167 116.333 24.170 111.625 L 24.173 106.917 25.782 108.583 C 26.667 109.500,28.733 111.619,30.373 113.292 L 33.355 116.333 34.594 116.333 L 35.833 116.333 35.833 109.750 L 35.833 103.167 34.500 103.167 L 33.167 103.167 33.167 107.732 L 33.167 112.297 28.637 107.732 L 24.107 103.167 22.803 103.167 L 21.500 103.167 21.500 109.750 M43.178 105.789 C 42.405 107.234,41.274 109.317,40.664 110.417 C 39.656 112.236,38.276 114.776,37.722 115.833 L 37.503 116.250 38.779 116.299 C 40.423 116.363,40.290 116.449,41.253 114.688 L 42.083 113.170 46.015 113.168 L 49.948 113.167 50.825 114.750 L 51.702 116.333 53.112 116.333 C 54.849 116.333,55.004 116.924,51.677 110.869 C 50.231 108.237,48.704 105.446,48.285 104.667 L 47.522 103.250 46.053 103.206 L 44.583 103.161 43.178 105.789 M61.000 109.750 L 61.000 116.333 62.341 116.333 L 63.681 116.333 63.576 111.542 L 63.470 106.750 64.687 108.000 C 65.356 108.688,67.452 110.844,69.345 112.792 L 72.786 116.333 74.059 116.333 L 75.333 116.333 75.333 109.750 L 75.333 103.167 74.000 103.167 L 72.667 103.167 72.667 107.791 L 72.667 112.415 68.153 107.791 L 63.639 103.167 62.320 103.167 L 61.000 103.167 61.000 109.750 M77.667 108.744 C 77.667 114.970,77.684 115.079,78.793 115.840 L 79.391 116.250 84.688 116.300 C 92.645 116.376,91.898 117.111,91.973 109.133 L 92.029 103.167 90.681 103.167 L 89.333 103.167 89.333 107.963 C 89.333 114.171,89.878 113.500,84.833 113.500 C 79.788 113.500,80.333 114.171,80.333 107.963 L 80.333 103.167 79.000 103.167 L 77.667 103.167 77.667 108.744 M95.687 103.347 C 94.184 103.642,93.619 104.475,93.422 106.687 C 93.108 110.214,93.826 110.687,99.703 110.822 C 104.360 110.929,104.379 110.934,104.379 112.157 C 104.379 113.527,104.495 113.500,98.558 113.500 L 93.333 113.500 93.333 114.917 L 93.333 116.333 97.875 116.330 C 106.073 116.325,106.662 116.129,107.162 113.240 C 107.802 109.537,106.611 108.667,100.903 108.667 C 96.693 108.667,96.430 108.614,96.163 107.716 C 95.648 105.989,96.156 105.835,102.375 105.834 L 107.167 105.833 107.167 104.500 L 107.167 103.167 101.792 103.185 C 98.835 103.195,96.088 103.268,95.687 103.347 M114.545 103.375 C 114.456 103.490,113.948 104.408,113.417 105.417 C 112.885 106.425,111.911 108.225,111.253 109.417 C 110.045 111.602,109.460 112.673,108.178 115.048 L 107.477 116.347 108.947 116.298 L 110.417 116.250 111.250 114.709 L 112.083 113.169 116.067 113.209 L 120.051 113.250 120.900 114.789 L 121.750 116.328 123.222 116.331 C 124.032 116.332,124.669 116.273,124.639 116.200 C 124.608 116.127,123.824 114.683,122.896 112.992 C 121.967 111.300,120.515 108.642,119.669 107.083 C 117.291 102.707,117.712 103.167,116.090 103.167 C 115.182 103.167,114.652 103.238,114.545 103.375 M125.500 109.750 L 125.500 116.333 126.793 116.333 L 128.087 116.333 128.024 111.553 L 127.962 106.772 131.106 110.007 C 132.835 111.787,134.922 113.938,135.744 114.788 L 137.239 116.333 138.536 116.333 L 139.833 116.333 139.833 109.750 L 139.833 103.167 138.500 103.167 L 137.167 103.167 137.163 107.792 L 137.158 112.417 132.621 107.786 L 128.083 103.156 126.792 103.161 L 125.500 103.167 125.500 109.750 M141.000 104.500 L 141.000 105.833 143.417 105.833 L 145.833 105.833 145.833 111.083 L 145.833 116.333 147.167 116.333 L 148.500 116.333 148.500 111.083 L 148.500 105.833 150.833 105.833 L 153.167 105.833 153.167 104.500 L 153.167 103.167 147.083 103.167 L 141.000 103.167 141.000 104.500 M157.648 103.542 C 157.231 104.338,156.212 106.214,154.414 109.500 C 151.952 113.997,150.833 116.099,150.833 116.228 C 150.833 116.286,151.452 116.333,152.208 116.333 L 153.583 116.333 154.466 114.750 L 155.349 113.167 159.299 113.169 L 163.250 113.172 164.099 114.711 L 164.948 116.250 166.411 116.298 C 168.138 116.356,168.134 116.644,166.446 113.605 C 165.777 112.401,164.222 109.560,162.991 107.292 L 160.753 103.167 159.299 103.167 C 157.961 103.167,157.829 103.196,157.648 103.542 M168.833 109.743 L 168.833 116.333 170.167 116.333 L 171.500 116.333 171.500 114.167 L 171.500 112.000 173.644 112.000 L 175.787 112.000 177.339 113.375 C 178.193 114.131,179.272 115.104,179.737 115.537 L 180.583 116.324 182.000 116.327 L 183.417 116.330 181.917 114.958 C 181.092 114.204,180.042 113.231,179.583 112.797 L 178.750 112.007 180.064 112.004 C 182.687 111.996,183.246 111.170,183.249 107.304 C 183.251 103.072,183.630 103.266,175.208 103.201 L 168.833 103.152 168.833 109.743 M189.417 106.538 C 188.408 108.391,187.317 110.397,186.991 110.995 C 186.665 111.594,185.962 112.908,185.428 113.917 C 184.895 114.925,184.392 115.821,184.312 115.908 C 183.993 116.255,184.224 116.333,185.571 116.333 L 186.976 116.333 187.851 114.750 L 188.725 113.167 192.669 113.167 L 196.614 113.167 197.095 114.042 C 197.360 114.523,197.739 115.217,197.937 115.583 L 198.299 116.250 199.733 116.298 C 200.521 116.325,201.167 116.303,201.167 116.251 C 201.167 116.087,200.347 114.528,198.758 111.671 C 197.916 110.156,196.528 107.623,195.674 106.042 L 194.120 103.167 192.685 103.168 L 191.250 103.169 189.417 106.538 M210.128 103.366 C 209.768 103.462,209.292 103.776,208.997 104.113 L 208.486 104.694 208.535 109.834 L 208.583 114.974 209.000 115.425 C 209.805 116.297,210.070 116.333,215.633 116.333 L 220.776 116.333 221.559 115.815 C 222.816 114.982,222.863 114.703,221.972 113.387 L 221.500 112.690 220.776 113.095 C 219.464 113.828,212.036 113.869,211.315 113.148 C 210.807 112.640,210.837 106.699,211.350 106.234 C 212.175 105.487,219.987 105.706,220.894 106.502 L 221.435 106.978 221.978 106.070 C 222.780 104.730,222.682 104.218,221.512 103.625 L 220.607 103.167 215.678 103.184 C 212.968 103.193,210.470 103.275,210.128 103.366 M225.052 103.407 C 224.046 103.852,224.000 104.120,224.000 109.498 C 224.000 116.746,223.542 116.334,231.594 116.332 C 239.537 116.331,238.895 116.831,238.972 110.583 C 239.038 105.174,238.974 104.496,238.334 103.779 L 237.861 103.250 231.722 103.211 C 226.738 103.179,225.484 103.216,225.052 103.407 M241.167 109.743 L 241.167 116.333 242.413 116.333 L 243.660 116.333 243.705 112.660 L 243.750 108.986 245.239 111.785 C 246.058 113.324,246.916 114.977,247.146 115.458 L 247.563 116.333 248.827 116.333 L 250.091 116.333 250.875 114.792 C 251.305 113.944,252.184 112.237,252.829 111.000 L 253.999 108.750 254.000 112.542 L 254.000 116.333 255.250 116.333 L 256.500 116.333 256.500 109.750 L 256.500 103.167 255.250 103.167 L 253.999 103.167 251.459 108.250 C 250.062 111.046,248.881 113.331,248.835 113.329 C 248.788 113.326,247.619 111.057,246.237 108.287 L 243.724 103.250 242.445 103.201 L 241.167 103.153 241.167 109.743 M258.167 109.749 L 258.167 116.347 259.542 116.298 L 260.917 116.250 260.963 114.134 L 261.010 112.019 265.797 111.968 C 272.320 111.898,272.000 112.128,272.000 107.500 C 272.000 102.881,272.664 103.263,264.542 103.201 L 258.167 103.152 258.167 109.749 M273.667 108.646 C 273.667 116.760,273.241 116.326,281.167 116.306 C 288.731 116.288,288.000 117.064,288.000 109.059 L 288.000 103.167 286.667 103.167 L 285.333 103.167 285.333 108.058 C 285.333 112.584,285.311 112.969,285.029 113.224 C 284.569 113.640,276.991 113.641,276.645 113.225 C 276.466 113.009,276.405 111.896,276.362 108.058 L 276.307 103.167 274.987 103.167 L 273.667 103.167 273.667 108.646 M289.333 104.500 L 289.333 105.833 291.667 105.833 L 294.000 105.833 294.000 111.083 L 294.000 116.333 295.417 116.333 L 296.833 116.333 296.833 111.083 L 296.833 105.833 299.167 105.833 L 301.500 105.833 301.500 104.500 L 301.500 103.167 295.417 103.167 L 289.333 103.167 289.333 104.500 M303.000 109.750 L 303.000 116.333 309.250 116.333 L 315.500 116.333 315.500 115.000 L 315.500 113.667 310.583 113.667 L 305.667 113.667 305.667 112.250 L 305.667 110.833 310.583 110.833 L 315.500 110.833 315.500 109.667 L 315.500 108.500 310.583 108.500 L 305.667 108.500 305.667 107.167 L 305.667 105.833 310.583 105.833 L 315.500 105.833 315.500 104.500 L 315.500 103.167 309.250 103.167 L 303.000 103.167 303.000 109.750 M317.333 109.741 L 317.333 116.333 318.750 116.333 L 320.167 116.333 320.167 114.167 L 320.167 112.000 322.265 112.000 L 324.363 112.000 326.781 114.167 L 329.199 116.333 330.558 116.330 L 331.917 116.326 330.996 115.455 C 330.489 114.976,329.440 114.002,328.664 113.292 L 327.254 112.000 328.566 112.000 C 331.125 112.000,331.722 111.201,331.804 107.667 C 331.911 103.061,332.279 103.266,323.792 103.199 L 317.333 103.149 317.333 109.741 M341.480 103.362 C 341.148 103.450,340.623 103.784,340.313 104.104 L 339.750 104.685 339.705 109.551 C 339.641 116.458,339.511 116.340,347.167 116.325 C 351.564 116.316,352.548 116.179,353.279 115.476 C 354.242 114.550,354.261 114.426,353.560 113.588 C 352.764 112.636,352.574 112.575,351.971 113.082 L 351.474 113.500 347.166 113.500 L 342.858 113.500 342.502 113.048 C 342.007 112.419,342.045 106.716,342.548 106.214 C 342.818 105.944,343.242 105.917,347.161 105.917 L 351.478 105.917 351.961 106.379 L 352.444 106.842 353.222 106.118 C 354.416 105.006,354.219 104.293,352.500 103.514 C 351.666 103.136,342.786 103.014,341.480 103.362 M355.667 109.750 L 355.667 116.333 361.833 116.333 L 368.000 116.333 368.000 115.000 L 368.000 113.667 363.167 113.667 L 358.333 113.667 358.333 108.417 L 358.333 103.167 357.000 103.167 L 355.667 103.167 355.667 109.750 M369.363 108.792 C 369.439 116.790,368.899 116.228,376.586 116.300 C 382.404 116.355,383.058 116.278,383.451 115.500 C 383.609 115.188,383.662 113.589,383.664 109.125 L 383.667 103.167 382.331 103.167 L 380.995 103.167 381.039 108.056 C 381.075 112.003,381.039 112.998,380.855 113.222 C 380.519 113.629,372.834 113.644,372.429 113.238 C 372.202 113.012,372.167 112.308,372.167 108.071 L 372.167 103.167 370.738 103.167 L 369.310 103.167 369.363 108.792 M385.333 109.737 L 385.333 116.333 390.977 116.333 C 396.747 116.333,398.045 116.229,398.742 115.711 C 400.169 114.652,400.234 110.710,398.839 109.861 C 398.368 109.574,398.348 109.529,398.605 109.316 C 399.529 108.551,399.812 106.022,399.125 104.660 C 398.426 103.274,398.341 103.258,391.375 103.196 L 385.333 103.141 385.333 109.737 M10.826 106.045 C 11.310 106.290,11.496 106.888,11.305 107.583 C 11.060 108.478,10.946 108.500,6.551 108.500 L 2.500 108.500 2.500 107.167 L 2.500 105.833 6.458 105.836 C 9.279 105.838,10.534 105.898,10.826 106.045 M180.348 106.310 C 180.801 106.870,180.801 108.797,180.348 109.357 C 180.031 109.749,180.017 109.750,175.765 109.802 L 171.500 109.854 171.500 107.836 L 171.500 105.817 175.765 105.867 C 180.019 105.917,180.031 105.918,180.348 106.310 M236.015 106.310 C 236.303 106.666,236.333 107.000,236.333 109.768 C 236.333 113.873,236.816 113.500,231.500 113.500 C 226.178 113.500,226.667 113.885,226.667 109.692 C 226.667 105.505,226.223 105.838,231.723 105.884 C 235.680 105.917,235.698 105.918,236.015 106.310 M269.109 106.250 C 269.494 106.766,269.358 109.115,268.925 109.431 C 268.415 109.804,260.755 109.777,260.899 109.403 C 260.954 109.258,261.000 108.392,261.000 107.478 L 261.000 105.816 264.930 105.866 C 268.635 105.914,268.875 105.936,269.109 106.250 M328.553 106.025 C 329.629 106.591,329.403 109.621,328.280 109.688 C 328.080 109.700,326.173 109.729,324.042 109.752 L 320.167 109.793 320.167 107.813 L 320.167 105.833 324.178 105.833 C 326.878 105.833,328.308 105.896,328.553 106.025 M117.384 108.362 L 118.606 110.618 116.114 110.731 C 114.743 110.792,113.600 110.822,113.576 110.797 C 113.551 110.771,114.094 109.677,114.784 108.366 C 115.474 107.055,116.066 106.010,116.100 106.044 C 116.134 106.079,116.712 107.122,117.384 108.362 M160.612 108.387 C 161.269 109.595,161.794 110.591,161.778 110.602 C 161.763 110.613,160.613 110.673,159.224 110.735 L 156.699 110.849 157.974 108.439 C 158.676 107.114,159.287 106.066,159.333 106.111 C 159.379 106.156,159.954 107.180,160.612 108.387 M396.529 106.276 C 397.190 106.875,396.723 108.380,395.820 108.561 C 395.529 108.619,393.651 108.667,391.646 108.667 L 388.000 108.667 388.000 107.333 L 388.000 106.000 392.112 106.000 C 395.704 106.000,396.262 106.035,396.529 106.276 M47.316 108.347 C 47.983 109.546,48.479 110.577,48.419 110.637 C 48.291 110.764,43.500 110.911,43.500 110.787 C 43.500 110.741,43.803 110.152,44.173 109.477 C 44.543 108.802,45.084 107.781,45.376 107.208 C 46.047 105.888,45.900 105.802,47.316 108.347 M194.013 108.458 L 195.277 110.750 192.782 110.796 C 191.409 110.822,190.260 110.815,190.227 110.782 C 190.193 110.749,190.544 110.016,191.006 109.153 C 191.468 108.290,192.008 107.265,192.206 106.875 C 192.681 105.941,192.574 105.847,194.013 108.458 M11.405 111.095 C 11.738 111.428,11.754 112.817,11.430 113.260 C 11.209 113.563,10.926 113.586,6.847 113.633 L 2.500 113.682 2.500 112.258 L 2.500 110.833 6.821 110.833 C 10.528 110.833,11.180 110.871,11.405 111.095 M396.833 111.167 C 397.244 111.577,397.285 112.757,396.907 113.296 C 396.650 113.663,396.603 113.667,392.324 113.667 L 388.000 113.667 388.000 112.250 L 388.000 110.833 392.250 110.833 C 396.278 110.833,396.517 110.851,396.833 111.167 " fill-rule="evenodd"/>
            <path id="rJ8lqBzyGPG" d="" fill-rule="evenodd"/>
            <path id="H1vlcHGkGPf" d="" fill-rule="evenodd"/>
            <path id="HyOxqrf1zPz" d="M241.583 0.353 C 224.709 3.338,219.380 8.541,214.161 27.126 C 211.991 34.851,211.987 34.867,207.983 50.083 C 207.621 51.458,207.096 53.446,206.817 54.500 C 206.537 55.554,206.171 56.942,206.003 57.583 C 205.655 58.916,204.106 64.691,203.365 67.417 C 199.764 80.670,201.453 86.951,209.833 91.460 C 212.606 92.952,216.511 94.132,219.868 94.493 C 221.821 94.703,297.833 94.740,297.833 94.531 C 297.833 94.456,297.402 94.220,296.875 94.008 C 290.788 91.549,287.175 86.461,286.524 79.428 C 286.406 78.161,286.275 77.546,286.076 77.326 C 285.804 77.025,284.911 77.012,259.439 76.948 C 230.729 76.876,231.453 76.900,228.527 75.926 C 225.924 75.059,225.321 74.028,225.658 71.023 C 225.893 68.938,226.152 67.920,230.417 52.333 C 230.730 51.188,231.408 48.675,231.924 46.750 C 232.439 44.825,233.236 41.862,233.695 40.167 C 234.154 38.471,234.742 36.286,235.003 35.311 C 237.850 24.683,238.421 23.128,240.149 21.292 C 243.452 17.781,244.936 17.638,277.680 17.679 C 303.224 17.711,301.961 17.756,302.335 16.798 C 305.717 8.132,310.986 2.876,318.583 0.590 C 319.408 0.342,320.158 0.113,320.250 0.083 C 321.108 -0.207,243.233 0.061,241.583 0.353 M333.667 0.115 C 324.575 1.626,318.816 3.858,314.288 7.624 C 310.118 11.093,307.076 16.473,304.934 24.167 C 304.390 26.122,302.252 34.021,301.416 37.167 C 300.901 39.102,298.539 47.695,298.438 48.002 C 298.393 48.139,298.080 49.262,297.742 50.500 C 296.983 53.285,295.699 57.770,294.284 62.583 C 289.917 77.435,290.047 82.515,294.940 88.113 C 300.112 94.029,306.811 95.177,334.083 94.822 C 340.958 94.733,352.569 94.673,359.884 94.690 C 371.764 94.717,373.212 94.692,373.446 94.459 C 373.589 94.315,374.180 92.522,374.757 90.474 C 375.335 88.426,376.156 85.550,376.582 84.083 C 378.401 77.822,378.535 77.291,378.324 77.161 C 378.213 77.092,366.150 76.998,351.519 76.952 C 321.357 76.856,320.878 76.835,318.030 75.470 C 315.408 74.214,314.993 70.674,316.743 64.500 C 316.964 63.721,317.483 61.883,317.897 60.417 C 318.310 58.950,319.584 54.450,320.727 50.417 C 321.870 46.383,323.042 42.221,323.331 41.167 C 323.621 40.112,323.925 39.063,324.006 38.833 C 324.087 38.604,324.611 36.729,325.171 34.667 C 328.645 21.876,330.385 19.611,337.661 18.410 C 341.976 17.698,344.280 17.647,370.215 17.688 C 394.197 17.726,394.687 17.721,394.994 17.405 C 395.283 17.109,396.313 13.759,397.936 7.833 C 398.250 6.688,398.652 5.300,398.829 4.750 C 399.219 3.540,400.000 0.516,400.000 0.216 C 400.000 0.010,334.894 -0.089,333.667 0.115 M25.417 0.375 C 25.378 0.490,24.886 2.308,24.324 4.417 C 22.459 11.419,20.875 17.351,19.251 23.417 C 18.367 26.717,17.093 31.479,16.420 34.000 C 15.746 36.521,14.432 41.433,13.500 44.917 C 12.568 48.400,11.254 53.313,10.580 55.833 C 9.907 58.354,8.832 62.367,8.191 64.750 C 7.551 67.133,6.465 71.183,5.778 73.750 C 5.091 76.317,3.993 80.404,3.339 82.833 C 0.840 92.105,0.333 94.048,0.333 94.363 C 0.333 94.818,67.051 94.738,71.083 94.279 C 88.788 92.260,95.633 85.836,100.326 66.834 C 102.994 56.031,102.797 53.194,99.118 49.386 C 97.315 47.520,97.315 47.528,99.356 46.346 C 104.856 43.163,106.728 40.658,108.583 34.000 C 109.005 32.487,109.492 30.762,109.666 30.167 C 110.985 25.655,112.343 19.385,112.683 16.231 C 113.609 7.646,107.986 2.286,96.184 0.503 C 93.412 0.084,25.561 -0.039,25.417 0.375 M131.063 0.496 C 123.266 2.540,120.645 6.779,116.166 24.583 C 112.917 37.496,109.612 49.945,105.901 63.250 C 105.108 66.092,104.327 68.904,104.165 69.500 C 99.919 85.122,95.638 91.149,86.868 93.848 C 85.981 94.121,85.183 94.417,85.094 94.506 C 84.991 94.609,91.042 94.667,102.046 94.667 L 119.159 94.667 119.396 94.292 C 119.527 94.085,119.986 92.604,120.418 91.000 C 120.849 89.396,121.576 86.696,122.033 85.000 C 122.489 83.304,123.224 80.567,123.665 78.917 C 124.106 77.267,124.854 74.492,125.329 72.750 C 126.231 69.437,127.340 65.340,130.582 53.333 C 131.189 51.087,132.060 47.862,132.519 46.167 C 132.978 44.471,133.606 42.146,133.914 41.000 C 134.223 39.854,135.015 36.967,135.674 34.583 C 136.333 32.200,136.972 29.886,137.092 29.441 C 137.365 28.439,137.450 28.348,137.643 28.852 C 137.726 29.071,138.170 30.150,138.629 31.250 C 139.814 34.089,142.979 42.080,145.164 47.750 C 146.188 50.408,147.205 53.038,147.423 53.593 C 147.640 54.149,148.264 55.761,148.808 57.177 C 150.591 61.810,151.344 63.745,151.498 64.083 C 151.581 64.267,152.261 65.954,153.009 67.833 C 154.282 71.035,157.292 78.325,158.030 80.000 C 163.017 91.307,168.127 95.364,176.862 94.953 C 187.468 94.454,192.310 89.031,196.831 72.583 C 197.958 68.481,199.744 61.905,201.606 55.000 C 202.113 53.121,202.904 50.196,203.363 48.500 C 203.822 46.804,204.308 45.004,204.443 44.500 C 204.578 43.996,205.353 41.146,206.166 38.167 C 206.978 35.188,208.252 30.425,208.996 27.583 C 213.309 11.118,218.677 3.743,228.471 0.824 C 229.178 0.613,229.631 0.398,229.546 0.312 C 229.462 0.228,221.732 0.183,211.582 0.208 L 193.765 0.250 193.542 1.000 C 192.789 3.538,190.665 11.704,187.666 23.583 C 183.285 40.942,182.014 45.899,179.826 54.167 C 176.929 65.110,176.273 67.499,176.162 67.499 C 175.969 67.501,173.123 60.333,166.664 43.583 C 165.149 39.653,164.774 38.688,163.949 36.583 C 162.278 32.319,160.535 27.951,159.326 25.000 C 158.670 23.396,157.875 21.455,157.561 20.687 C 152.157 7.470,147.971 1.963,142.210 0.490 C 140.379 0.021,132.857 0.026,131.063 0.496 M81.500 17.825 C 88.629 18.274,90.362 20.362,88.828 26.657 C 86.478 36.305,83.507 38.438,72.261 38.549 C 58.953 38.680,38.653 38.491,38.555 38.236 C 38.461 37.992,38.749 36.846,40.017 32.405 C 40.280 31.482,40.716 29.907,40.986 28.905 C 41.255 27.903,41.863 25.658,42.337 23.917 C 42.811 22.175,43.337 20.232,43.506 19.599 C 43.986 17.801,43.524 17.930,49.881 17.829 C 59.355 17.679,79.140 17.676,81.500 17.825 M74.667 57.065 C 79.148 58.157,79.568 58.930,78.506 64.135 C 77.123 70.915,73.746 75.108,68.500 76.558 C 67.166 76.927,28.325 77.225,27.969 76.869 C 27.891 76.791,28.020 75.987,28.258 75.072 C 28.728 73.266,32.023 60.084,32.442 58.333 C 32.585 57.737,32.810 57.079,32.942 56.869 L 33.182 56.488 52.966 56.543 L 72.750 56.597 74.667 57.065 " fill-rule="evenodd"/>
            <path id="S1YxcHMkMPf" d="" fill-rule="evenodd"/>
        </g>
    </g>
</svg>