<?xml version="1.0" encoding="iso-8859-1"?>
<!-- Generator: Adobe Illustrator 19.0.0, SVG Export Plug-In . SVG Version: 6.00 Build 0)  -->
<svg xmlns="http://www.w3.org/2000/svg" xmlns:xlink="http://www.w3.org/1999/xlink" version="1.1" id="Capa_1" x="0px" y="0px" viewBox="0 0 489.746 489.746" style="enable-background:new 0 0 489.746 489.746;" xml:space="preserve" width="512px" height="512px">
<g>
	<g>
		<path d="M483.9,15.473c-6.5-9.7-17.1-15.4-28.5-15.4c-4.5,0-8.9,0.9-13.2,2.7l-311.6,128.1c-13.4,5.5-21.7,18.4-21.3,32.9    c0.4,14.5,9.6,26.8,23.3,31.5l120.7,41.2l41.3,120.7c4.8,14.1,17.6,23.3,32.6,23.3c14.2,0,26.4-8.2,31.8-21.3l128.1-311.6    C491.5,36.773,490.4,25.073,483.9,15.473z M464.4,38.273l-128.2,311.6c-2.3,5.5-7.1,6.1-9.1,6.1c-1.7,0-7.3-0.5-9.4-6.7    l-43.2-126.4c-1.2-3.6-4-6.4-7.6-7.6l-126.4-43.2c-6-2.1-6.6-7.5-6.7-9.1c0-1.6,0.2-7,6.1-9.5l311.6-128.1    c1.3-0.5,2.6-0.8,3.9-0.8c3.2,0,6.3,1.7,8.2,4.6C464.9,31.073,466.1,34.173,464.4,38.273z" fill="#0ab0da"/>
		<path d="M183.9,288.573l-171.4,171.4c-4.8,4.8-4.8,12.5,0,17.3c2.4,2.4,5.5,3.6,8.7,3.6s6.3-1.2,8.7-3.6l171.3-171.4    c4.8-4.8,4.8-12.5,0-17.3C196.4,283.773,188.7,283.773,183.9,288.573z" fill="#0ab0da"/>
		<path d="M3.6,326.973c-4.8,4.8-4.8,12.5,0,17.3c2.4,2.4,5.5,3.6,8.7,3.6s6.3-1.2,8.7-3.6l62-62c4.8-4.8,4.8-12.5,0-17.3    s-12.5-4.8-17.3,0L3.6,326.973z" fill="#0ab0da"/>
		<path d="M145.5,486.073c2.4,2.4,5.5,3.6,8.7,3.6s6.3-1.2,8.7-3.6l62-62c4.8-4.8,4.8-12.5,0-17.3s-12.5-4.8-17.3,0l-62,62    C140.7,473.573,140.7,481.373,145.5,486.073z" fill="#0ab0da"/>
	</g>
</g>
<g>
</g>
<g>
</g>
<g>
</g>
<g>
</g>
<g>
</g>
<g>
</g>
<g>
</g>
<g>
</g>
<g>
</g>
<g>
</g>
<g>
</g>
<g>
</g>
<g>
</g>
<g>
</g>
<g>
</g>
</svg>
